-- Merging decision tree log ---
manifest
ADDED from /home/vengeur/AndroidStudioProjects/MyApplication4/app/src/main/AndroidManifest.xml:2:1-42:12
	xmlns:android
		ADDED from /home/vengeur/AndroidStudioProjects/MyApplication4/app/src/main/AndroidManifest.xml:2:11-69
	package
		ADDED from /home/vengeur/AndroidStudioProjects/MyApplication4/app/src/main/AndroidManifest.xml:3:5-48
		INJECTED from /home/vengeur/AndroidStudioProjects/MyApplication4/app/src/main/AndroidManifest.xml
		INJECTED from /home/vengeur/AndroidStudioProjects/MyApplication4/app/src/main/AndroidManifest.xml
	android:versionName
		INJECTED from /home/vengeur/AndroidStudioProjects/MyApplication4/app/src/main/AndroidManifest.xml
		INJECTED from /home/vengeur/AndroidStudioProjects/MyApplication4/app/src/main/AndroidManifest.xml
	android:versionCode
		INJECTED from /home/vengeur/AndroidStudioProjects/MyApplication4/app/src/main/AndroidManifest.xml
		INJECTED from /home/vengeur/AndroidStudioProjects/MyApplication4/app/src/main/AndroidManifest.xml
uses-permission#android.permission.INTERNET
ADDED from /home/vengeur/AndroidStudioProjects/MyApplication4/app/src/main/AndroidManifest.xml:5:5-67
	android:name
		ADDED from /home/vengeur/AndroidStudioProjects/MyApplication4/app/src/main/AndroidManifest.xml:5:22-64
uses-permission#android.permission.RECEIVE_BOOT_COMPLETED
ADDED from /home/vengeur/AndroidStudioProjects/MyApplication4/app/src/main/AndroidManifest.xml:6:5-81
	android:name
		ADDED from /home/vengeur/AndroidStudioProjects/MyApplication4/app/src/main/AndroidManifest.xml:6:22-78
uses-permission#android.permission.DISABLE_KEYGUARD
ADDED from /home/vengeur/AndroidStudioProjects/MyApplication4/app/src/main/AndroidManifest.xml:7:5-75
	android:name
		ADDED from /home/vengeur/AndroidStudioProjects/MyApplication4/app/src/main/AndroidManifest.xml:7:22-72
application
ADDED from /home/vengeur/AndroidStudioProjects/MyApplication4/app/src/main/AndroidManifest.xml:8:5-40:19
	android:supportsRtl
		ADDED from /home/vengeur/AndroidStudioProjects/MyApplication4/app/src/main/AndroidManifest.xml:12:9-35
	android:label
		ADDED from /home/vengeur/AndroidStudioProjects/MyApplication4/app/src/main/AndroidManifest.xml:11:9-41
	android:allowBackup
		ADDED from /home/vengeur/AndroidStudioProjects/MyApplication4/app/src/main/AndroidManifest.xml:9:9-35
	android:icon
		ADDED from /home/vengeur/AndroidStudioProjects/MyApplication4/app/src/main/AndroidManifest.xml:10:9-43
	android:theme
		ADDED from /home/vengeur/AndroidStudioProjects/MyApplication4/app/src/main/AndroidManifest.xml:13:9-40
activity#com.example.vengeur.myapplication.MainActivity
ADDED from /home/vengeur/AndroidStudioProjects/MyApplication4/app/src/main/AndroidManifest.xml:14:9-20:20
	android:name
		ADDED from /home/vengeur/AndroidStudioProjects/MyApplication4/app/src/main/AndroidManifest.xml:14:19-47
intent-filter#android.intent.action.MAIN+android.intent.category.LAUNCHER
ADDED from /home/vengeur/AndroidStudioProjects/MyApplication4/app/src/main/AndroidManifest.xml:15:13-19:29
action#android.intent.action.MAIN
ADDED from /home/vengeur/AndroidStudioProjects/MyApplication4/app/src/main/AndroidManifest.xml:16:17-69
	android:name
		ADDED from /home/vengeur/AndroidStudioProjects/MyApplication4/app/src/main/AndroidManifest.xml:16:25-66
category#android.intent.category.LAUNCHER
ADDED from /home/vengeur/AndroidStudioProjects/MyApplication4/app/src/main/AndroidManifest.xml:18:17-77
	android:name
		ADDED from /home/vengeur/AndroidStudioProjects/MyApplication4/app/src/main/AndroidManifest.xml:18:27-74
service#com.example.vengeur.myapplication.LockService
ADDED from /home/vengeur/AndroidStudioProjects/MyApplication4/app/src/main/AndroidManifest.xml:22:9-25:39
	android:exported
		ADDED from /home/vengeur/AndroidStudioProjects/MyApplication4/app/src/main/AndroidManifest.xml:25:13-36
	android:enabled
		ADDED from /home/vengeur/AndroidStudioProjects/MyApplication4/app/src/main/AndroidManifest.xml:24:13-35
	android:name
		ADDED from /home/vengeur/AndroidStudioProjects/MyApplication4/app/src/main/AndroidManifest.xml:23:13-40
activity#com.example.vengeur.myapplication.Lock
ADDED from /home/vengeur/AndroidStudioProjects/MyApplication4/app/src/main/AndroidManifest.xml:27:9-29:51
	android:name
		ADDED from /home/vengeur/AndroidStudioProjects/MyApplication4/app/src/main/AndroidManifest.xml:28:13-33
	android:launchMode
		ADDED from /home/vengeur/AndroidStudioProjects/MyApplication4/app/src/main/AndroidManifest.xml:29:13-48
receiver#com.example.vengeur.myapplication.autoStart
ADDED from /home/vengeur/AndroidStudioProjects/MyApplication4/app/src/main/AndroidManifest.xml:31:9-38:20
	android:exported
		ADDED from /home/vengeur/AndroidStudioProjects/MyApplication4/app/src/main/AndroidManifest.xml:34:13-36
	android:enabled
		ADDED from /home/vengeur/AndroidStudioProjects/MyApplication4/app/src/main/AndroidManifest.xml:33:13-35
	android:name
		ADDED from /home/vengeur/AndroidStudioProjects/MyApplication4/app/src/main/AndroidManifest.xml:32:13-38
intent-filter#android.intent.action.BOOT_COMPLETED
ADDED from /home/vengeur/AndroidStudioProjects/MyApplication4/app/src/main/AndroidManifest.xml:35:13-37:29
action#android.intent.action.BOOT_COMPLETED
ADDED from /home/vengeur/AndroidStudioProjects/MyApplication4/app/src/main/AndroidManifest.xml:36:17-79
	android:name
		ADDED from /home/vengeur/AndroidStudioProjects/MyApplication4/app/src/main/AndroidManifest.xml:36:25-76
uses-sdk
INJECTED from /home/vengeur/AndroidStudioProjects/MyApplication4/app/src/main/AndroidManifest.xml reason: use-sdk injection requested
MERGED from [com.android.support:multidex:1.0.1] /home/vengeur/AndroidStudioProjects/MyApplication4/app/build/intermediates/exploded-aar/com.android.support/multidex/1.0.1/AndroidManifest.xml:18:5-42
	android:targetSdkVersion
		INJECTED from /home/vengeur/AndroidStudioProjects/MyApplication4/app/src/main/AndroidManifest.xml
		INJECTED from /home/vengeur/AndroidStudioProjects/MyApplication4/app/src/main/AndroidManifest.xml
	android:minSdkVersion
		INJECTED from /home/vengeur/AndroidStudioProjects/MyApplication4/app/src/main/AndroidManifest.xml
		INJECTED from /home/vengeur/AndroidStudioProjects/MyApplication4/app/src/main/AndroidManifest.xml
